{
    "key": "group_595545e3548bd",
    "title": "FAQ or Mr. Wizard",
    "fields": [
        {
            "key": "field_59554626de256",
            "label": "Question",
            "name": "question",
            "type": "wysiwyg",
            "instructions": "",
            "required": 0,
            "conditional_logic": 0,
            "wrapper": {
                "width": "",
                "class": "",
                "id": ""
            },
            "default_value": "",
            "tabs": "all",
            "toolbar": "full",
            "media_upload": 0,
            "delay": 0
        }
    ],
    "location": [
        [
            {
                "param": "post_type",
                "operator": "==",
                "value": "faq"
            }
        ],
        [
            {
                "param": "post_type",
                "operator": "==",
                "value": "mr-wizard"
            }
        ]
    ],
    "menu_order": 0,
    "position": "acf_after_title",
    "style": "seamless",
    "label_placement": "top",
    "instruction_placement": "label",
    "hide_on_screen": "",
    "active": 1,
    "description": "",
    "modified": 1499258805
}